{
    "id": "org.kde.kanagram",
    "branch": "master",
    "runtime": "org.kde.Platform",
    "runtime-version": "5.15-21.08",
    "sdk": "org.kde.Sdk",
    "command": "kanagram",
    "tags": ["nightly"],
    "desktop-file-name-suffix": " (Nightly)",
    "finish-args": ["--share=network", "--socket=pulseaudio", "--share=ipc", "--socket=x11", "--socket=wayland" ],

    "modules": [
        {
            "name": "libkeduvocdocument",
            "buildsystem": "cmake-ninja",
            "sources": [ { "type": "git", "url": "https://invent.kde.org/kde/libkeduvocdocument.git" } ]
        },
        {
            "name": "kdeedu-data",
            "buildsystem": "cmake-ninja",
            "sources": [ { "type": "git", "url": "https://invent.kde.org/kde/kdeedu-data.git" } ]
        },
        {
            "name": "kanagram",
            "buildsystem": "cmake-ninja",
            "sources": [ { "type": "git", "url": "https://invent.kde.org/kde/kanagram.git" } ]
        }
    ]
}
