{
    "id": "org.kde.kdiff3",
    "branch": "master",
    "runtime": "org.kde.Platform",
    "runtime-version": "5.15-21.08",
    "sdk": "org.kde.Sdk",
    "command": "kdiff3",
    "tags": ["nightly"],
    "desktop-file-name-suffix": " (Nightly)",
    "finish-args": ["--device=dri", "--share=network", "--share=ipc", "--socket=system-bus", "--socket=x11", "--socket=wayland", "--filesystem=host" ],

    "modules": [
        "boost.json",
        {
            "name": "kdiff3",
            "buildsystem": "cmake-ninja",
            "sources": [
                { "type": "git", "url": "https://invent.kde.org/sdk/kdiff3.git" }
            ]
        }
    ]
}
