{
    "id": "org.kde.minuet",
    "branch": "master",
    "runtime": "org.kde.Platform",
    "runtime-version": "5.15-21.08",
    "sdk": "org.kde.Sdk",
    "command": "minuet",
    "tags": ["nightly"],
    "desktop-file-name-suffix": " (Nightly)",
    "finish-args": ["--socket=pulseaudio", "--share=ipc", "--socket=x11", "--socket=wayland" ],

    "modules": [
        {
            "name": "fluidsynth",
            "sources": [
                {
                    "type": "archive",
                    "url": "http://downloads.sourceforge.net/fluidsynth/fluidsynth-1.1.6.tar.gz",
                    "sha256": "50853391d9ebeda9b4db787efb23f98b1e26b7296dd2bb5d0d96b5bccee2171c"
                }
            ]
        },
        {
            "name": "minuet",
            "buildsystem": "cmake-ninja",
            "sources": [ { "type": "git", "url": "https://invent.kde.org/kde/minuet.git" } ]
        }
    ]
}
