{
    "id": "org.kde.kirogi",
    "branch": "master",
    "rename-icon": "kirogi",
    "runtime": "org.kde.Platform",
    "runtime-version": "5.15-21.08",
    "sdk": "org.kde.Sdk",
    "command": "kirogi",
    "tags": ["nightly"],
    "desktop-file-name-prefix": "(Nightly) ",
    "finish-args": ["--share=ipc", "--socket=x11", "--socket=wayland", "--filesystem=host", "--device=dri", "--system-talk-name=org.freedesktop.Avahi"],

    "modules": [
        {
            "name": "gst-plugins-base",
            "sources": [
                {
                    "type" : "archive",
                    "url" : "https://gstreamer.freedesktop.org/src/gst-plugins-base/gst-plugins-base-1.16.0.tar.xz",
                    "sha256": "4093aa7b51e28fb24dfd603893fead8d1b7782f088b05ed0f22a21ef176fb5ae"
                },
                {
                    "type": "patch",
                    "path": "kirogi-gst.patch"
                }
            ]
        },
        {
            "name": "gst-plugins-good",
            "config-opts": [
                "--disable-gst_v4l2"
            ],
            "sources": [
                {
                    "type" : "archive",
                    "url" : "https://gstreamer.freedesktop.org/src/gst-plugins-good/gst-plugins-good-1.16.0.tar.xz",
                    "sha256": "654adef33380d604112f702c2927574cfc285e31307b79e584113858838bb0fd"
                }
            ]
        },
        {
            "name": "kirogi",
            "buildsystem": "cmake-ninja",
            "sources": [
                {
                    "type": "git",
                    "url": "https://invent.kde.org/kde/kirogi.git"
                }
            ]
        }
    ]
}
