{
    "id": "org.kde.kajongg",
    "branch": "master",
    "runtime": "org.kde.Platform",
    "runtime-version": "5.15-21.08",
    "sdk": "org.kde.Sdk",
    "command": "kajongg",
    "tags": ["nightly"],
    "desktop-file-name-suffix": " (Nightly)",
    "finish-args": ["--share=ipc", "--socket=x11", "--socket=wayland", "--filesystem=host" ],

    "modules": [
        {
            "name": "libkmahjongg",
            "buildsystem": "cmake-ninja",
            "sources": [
                { "type": "git", "url": "https://invent.kde.org/kde/libkmahjongg.git" }
            ]
        },
        {
            "name": "incremental",
            "buildsystem": "simple",
            "build-commands": [
                "python setup.py build",
                "python setup.py install --prefix=/app --optimize=1"
            ],
            "sources": [
                { "type": "git", "url": "https://github.com/glyph/automat.git", "tag": "v0.5.0" }
            ]
        },
        {
            "name": "twisted",
            "buildsystem": "simple",
            "build-commands": [
                "python setup.py build",
                "python setup.py install --prefix=/app --optimize=1"
            ],
            "sources": [
                { "type": "git", "url": "https://github.com/twisted/twisted.git", "branch": "twisted-17.1.0" }
            ]
        },
        {
            "name": "kajongg",
            "buildsystem": "cmake-ninja",
            "sources": [
                { "type": "git", "url": "https://invent.kde.org/kde/kajongg.git" }
            ]
        }
    ]
}
